[
  { "class": "BasicEventSelection",
    "configs": {
      "m_name": "BasicEventSel",
      "m_truthLevelOnly": false,
      "m_applyGRLCut": true,
      "m_GRLxml": "xAODAnaHelpers/data16_13TeV.periodAllYear_DetStatus-v88-pro20-21_DQDefects-00-02-04_PHYS_StandardGRL_All_Good_25ns.xml",
      "m_triggerSelection": "HLT_j420 | HLT_j400 | HLT_j380 | HLT_j360 | HLT_j280 | HLT_j260 | HLT_j200 | HLT_j175 | HLT_j150 | HLT_j110 | HLT_j85 | HLT_j55 | HLT_j45 | HLT_j35 | HLT_j60 | HLT_j25 | HLT_j15 | L1_RD0_FILLED | HLT_j420_320eta490 | HLT_j400_320eta490 | HLT_j380_320eta490 | HLT_j360_320eta490 | HLT_j260_320eta490 | HLT_j200_320eta490 | HLT_j175_320eta490 | HLT_j150_320eta490 | HLT_j110_320eta490 | HLT_j85_320eta490 | HLT_j60_320eta490 | HLT_j55_320eta490 | HLT_j45_320eta490 | HLT_j35_320eta490 | HLT_j25_320eta490 | HLT_j15_320eta490",
      "m_applyTriggerCut": true,
      "m_storeTrigDecisions": true,  
      "m_applyEventCleaningCut": true,
      "m_applyCoreFlagsCut": true,
      "m_doPUreweighting": false,
      "m_applyPrimaryVertexCut": true,
      "m_vertexContainerName": "PrimaryVertices",
      "m_PVNTrack": 2,
      "m_checkDuplicatesData": true,
      "m_derivationName": "JETM9Kernel"
    }
  },
  
  { "class": "JetCalibrator",
    "configs": {
      "m_name": "4EMCalibrator",
      "m_calibConfigData": "JES_data2016_data2015_Recommendation_Dec2016.config",
      "m_calibSequence": "JetArea_Residual_Origin_EtaJES_GSC_Insitu",
      "m_redoJVT": true,
      "m_sort": true,
      "m_doCleaning": true,
      "m_jetCleanCutLevel": "LooseBad",
      "m_saveAllCleanDecisions": true,
      "m_jetCleanUgly": false,
      "m_inContainerName": "AntiKt4EMTopoJets",
      "m_outContainerName": "AntiKt4EMTopoJets_Nominal",
      "m_jetAlgo": "AntiKt4EMTopo",
      "m_outputAlgo": "AntiKt4EMTopoJets_Nominal_Algo",
      "m_JESUncertConfig": "",
      "m_JERUncertConfig": ""
    }
  },

  { "class": "JetCalibrator",
    "configs": {
      "m_name": "2LCCalibrator",
      "m_calibConfigData": "JES_MC15Prerecommendation_Rscan_Aug2015.config",
      "m_calibSequence": "JetArea_Residual_Origin_EtaJES",
      "m_redoJVT": false,
      "m_sort": true,
      "m_doCleaning": true,
      "m_jetCleanCutLevel": "LooseBad",
      "m_saveAllCleanDecisions": true,
      "m_jetCleanUgly": false,
      "m_inContainerName": "AntiKt2LCTopoJets",
      "m_outContainerName": "AntiKt2LCTopoJets_Nominal",
      "m_jetAlgo": "AntiKt2LCTopo",
      "m_outputAlgo": "AntiKt2LCTopoJets_Nominal_Algo",
      "m_JESUncertConfig": "",
      "m_JERUncertConfig": "",
      "m_forceInsitu": false
    }
  },

  { "class": "JetCalibrator",
    "configs": {
      "m_name": "3LCCalibrator",
      "m_calibConfigData": "JES_MC15Prerecommendation_Rscan_Aug2015.config",
      "m_calibSequence": "JetArea_Residual_Origin_EtaJES",
      "m_redoJVT": false,
      "m_sort": true,
      "m_doCleaning": true,
      "m_jetCleanCutLevel": "LooseBad",
      "m_saveAllCleanDecisions": true,
      "m_jetCleanUgly": false,
      "m_inContainerName": "AntiKt3LCTopoJets",
      "m_outContainerName": "AntiKt3LCTopoJets_Nominal",
      "m_jetAlgo": "AntiKt3LCTopo",
      "m_outputAlgo": "AntiKt3LCTopoJets_Nominal_Algo",
      "m_JESUncertConfig": "",
      "m_JERUncertConfig": "",
      "m_forceInsitu": false
    }
  },

  { "class": "JetCalibrator",
    "configs": {
      "m_name": "5LCCalibrator",
      "m_calibConfigData": "JES_MC15Prerecommendation_Rscan_Aug2015.config",
      "m_calibSequence": "JetArea_Residual_Origin_EtaJES",
      "m_redoJVT": false,
      "m_sort": true,
      "m_doCleaning": true,
      "m_jetCleanCutLevel": "LooseBad",
      "m_saveAllCleanDecisions": true,
      "m_jetCleanUgly": false,
      "m_inContainerName": "AntiKt5LCTopoJets",
      "m_outContainerName": "AntiKt5LCTopoJets_Nominal",
      "m_jetAlgo": "AntiKt5LCTopo",
      "m_outputAlgo": "AntiKt5LCTopoJets_Nominal_Algo",
      "m_JESUncertConfig": "",
      "m_JERUncertConfig": "",
      "m_forceInsitu": false
    }
  },

  { "class": "JetCalibrator",
    "configs": {
      "m_name": "6LCCalibrator",
      "m_calibConfigData": "JES_MC15Prerecommendation_Rscan_Aug2015.config",
      "m_calibSequence": "JetArea_Residual_Origin_EtaJES",
      "m_redoJVT": false,
      "m_sort": true,
      "m_doCleaning": true,
      "m_jetCleanCutLevel": "LooseBad",
      "m_saveAllCleanDecisions": true,
      "m_jetCleanUgly": false,
      "m_inContainerName": "AntiKt6LCTopoJets",
      "m_outContainerName": "AntiKt6LCTopoJets_Nominal",
      "m_jetAlgo": "AntiKt6LCTopo",
      "m_outputAlgo": "AntiKt6LCTopoJets_Nominal_Algo",
      "m_JESUncertConfig": "",
      "m_JERUncertConfig": "",
      "m_forceInsitu": false
    }
  },

  { "class": "JetCalibrator",
    "configs": {
      "m_name": "7LCCalibrator",
      "m_calibConfigData": "JES_MC15Prerecommendation_Rscan_Aug2015.config",
      "m_calibSequence": "JetArea_Residual_Origin_EtaJES",
      "m_redoJVT": false,
      "m_sort": true,
      "m_doCleaning": true,
      "m_jetCleanCutLevel": "LooseBad",
      "m_saveAllCleanDecisions": true,
      "m_jetCleanUgly": false,
      "m_inContainerName": "AntiKt7LCTopoJets",
      "m_outContainerName": "AntiKt7LCTopoJets_Nominal",
      "m_jetAlgo": "AntiKt7LCTopo",
      "m_outputAlgo": "AntiKt7LCTopoJets_Nominal_Algo",
      "m_JESUncertConfig": "",
      "m_JERUncertConfig": "",
      "m_forceInsitu": false
    }
  },

  { "class": "JetCalibrator",
    "configs": {
      "m_name": "8LCCalibrator",
      "m_calibConfigData": "JES_MC15Prerecommendation_Rscan_Aug2015.config",
      "m_calibSequence": "JetArea_Residual_Origin_EtaJES",
      "m_redoJVT": false,
      "m_sort": true,
      "m_doCleaning": true,
      "m_jetCleanCutLevel": "LooseBad",
      "m_saveAllCleanDecisions": true,
      "m_jetCleanUgly": false,
      "m_inContainerName": "AntiKt8LCTopoJets",
      "m_outContainerName": "AntiKt8LCTopoJets_Nominal",
      "m_jetAlgo": "AntiKt8LCTopo",
      "m_outputAlgo": "AntiKt8LCTopoJets_Nominal_Algo",
      "m_JESUncertConfig": "",
      "m_JERUncertConfig": "",
      "m_forceInsitu": false
    }
  },

  { "class": "JetSelector",
     "configs": {
      "m_name": "4EMSelector",
      "m_inContainerName": "AntiKt4EMTopoJets_Nominal",
      "m_inputAlgo": "AntiKt4EMTopoJets_Nominal_Algo",
      "m_decorateSelectedObjects": true,
      "m_createSelectedContainer": true,
      "m_outContainerName": "AntiKt4EMTopoJets_Signal",
      "m_outputAlgo":  "AntiKt4EMTopoJets_Signal_Algo",
      "m_cleanJets": false,
      "m_pT_min": 10e3,
      "m_useCutFlow": true
    }
  },


  { "class": "JetSelector",
     "configs": {
      "m_name": "2LCSelector",
      "m_inContainerName": "AntiKt2LCTopoJets_Nominal",
      "m_inputAlgo": "AntiKt2LCTopoJets_Nominal_Algo",
      "m_decorateSelectedObjects": true,
      "m_createSelectedContainer": true,
      "m_outContainerName": "AntiKt2LCTopoJets_Signal",
      "m_outputAlgo":  "AntiKt2LCTopoJets_Signal_Algo",
      "m_cleanJets": false,
      "m_pT_min": 10e3,
      "m_useCutFlow": true
    }
  },

  { "class": "JetSelector",
     "configs": {
      "m_name": "3LCSelector",
      "m_inContainerName": "AntiKt3LCTopoJets_Nominal",
      "m_inputAlgo": "AntiKt3LCTopoJets_Nominal_Algo",
      "m_decorateSelectedObjects": true,
      "m_createSelectedContainer": true,
      "m_outContainerName": "AntiKt3LCTopoJets_Signal",
      "m_outputAlgo":  "AntiKt3LCTopoJets_Signal_Algo",
      "m_cleanJets": false,
      "m_pT_min": 10e3,
      "m_useCutFlow": true
    }
  },

  
  { "class": "JetSelector",
     "configs": {
      "m_name": "5LCSelector",
      "m_inContainerName": "AntiKt5LCTopoJets_Nominal",
      "m_inputAlgo": "AntiKt5LCTopoJets_Nominal_Algo",
      "m_decorateSelectedObjects": true,
      "m_createSelectedContainer": true,
      "m_outContainerName": "AntiKt5LCTopoJets_Signal",
      "m_outputAlgo":  "AntiKt5LCTopoJets_Signal_Algo",
      "m_cleanJets": false,
      "m_pT_min": 10e3,
      "m_useCutFlow": true
    }
  },

  { "class": "JetSelector",
     "configs": {
      "m_name": "6LCSelector",
      "m_inContainerName": "AntiKt6LCTopoJets_Nominal",
      "m_inputAlgo": "AntiKt6LCTopoJets_Nominal_Algo",
      "m_decorateSelectedObjects": true,
      "m_createSelectedContainer": true,
      "m_outContainerName": "AntiKt6LCTopoJets_Signal",
      "m_outputAlgo":  "AntiKt6LCTopoJets_Signal_Algo",
      "m_cleanJets": false,
      "m_pT_min": 10e3,
      "m_useCutFlow": true
    }
  },

  { "class": "JetSelector",
     "configs": {
      "m_name": "7LCSelector",
      "m_inContainerName": "AntiKt7LCTopoJets_Nominal",
      "m_inputAlgo": "AntiKt7LCTopoJets_Nominal_Algo",
      "m_decorateSelectedObjects": true,
      "m_createSelectedContainer": true,
      "m_outContainerName": "AntiKt7LCTopoJets_Signal",
      "m_outputAlgo":  "AntiKt7LCTopoJets_Signal_Algo",
      "m_cleanJets": false,
      "m_pT_min": 10e3,
      "m_useCutFlow": true
    }
  },

  { "class": "JetSelector",
     "configs": {
      "m_name": "8LCSelector",
      "m_inContainerName": "AntiKt8LCTopoJets_Nominal",
      "m_inputAlgo": "AntiKt8LCTopoJets_Nominal_Algo",
      "m_decorateSelectedObjects": true,
      "m_createSelectedContainer": true,
      "m_outContainerName": "AntiKt8LCTopoJets_Signal",
      "m_outputAlgo":  "AntiKt8LCTopoJets_Signal_Algo",
      "m_cleanJets": false,
      "m_pT_min": 10e3,
      "m_useCutFlow": true
    }
  },

   
  { "class": "TreeAlgo",
     "configs": {
      "m_name": "Tree",
      "m_jetContainerName": "AntiKt4EMTopoJets_Signal AntiKt2LCTopoJets_Signal AntiKt3LCTopoJets_Signal AntiKt5LCTopoJets_Signal AntiKt6LCTopoJets_Signal AntiKt7LCTopoJets_Signal AntiKt8LCTopoJets_Signal HLT_xAOD__JetContainer_a4tcemsubjesFS",
      "m_jetBranchName": "RefJet 2LCJet 3LCJet 5LCJet 6LCJet 7LCJet 8LCJet HLTJet",
      "m_jetDetailStr": "kinematic rapidity clean scales constscaleEta trackPV|kinematic rapidity clean scales constscaleEta|kinematic rapidity clean scales constscaleEta|kinematic rapidity clean scales constscaleEta|kinematic rapidity clean scales constscaleEta|kinematic rapidity clean scales constscaleEta|kinematic rapidity clean scales constscaleEta|kinematic rapidity",
      "m_trigDetailStr": "basic passTriggers",
      "m_evtDetailStr": "pileup rhoEM",
      "m_l1JetContainerName": "LVL1JetRoIs"
    }
  }

]
