[
  { "class": "BasicEventSelection",
    "configs": {
      "m_name": "BasicEventSel",
      "m_truthLevelOnly": false,
      "m_applyGRLCut": false,
      "m_GRLxml": "xAODAnaHelpers/data16_13TeV.periodAllYear_DetStatus-v83-pro20-15_DQDefects-00-02-04_PHYS_StandardGRL_All_Good_25ns.xml",
      "m_triggerSelection": "HLT_j420 | HLT_j400 | HLT_j380 | HLT_j360 | HLT_j280 | HLT_j260 | HLT_j200 | HLT_j175 | HLT_j150 | HLT_j110 | HLT_j85 | HLT_j55 | HLT_j45 | HLT_j35 | HLT_j60 | HLT_j25 | HLT_j15",
      "m_applyTriggerCut": false,
      "m_storeTrigDecisions": false,  
      "m_applyEventCleaningCut": true,
      "m_applyCoreFlagsCut": true,
      "m_doPUreweighting": false,
      "m_applyPrimaryVertexCut": true,
      "m_vertexContainerName": "PrimaryVertices",
      "m_PVNTrack": 2,
      "m_checkDuplicatesMC": true,
      "m_derivationName": "JETM9Kernel"
    }
  },
  
  { "class": "JetCalibrator",
    "configs": {
      "m_name": "4EMCalibrator",
      "m_calibConfigFullSim": "JES_data2016_data2015_Recommendation_Dec2016.config",
      "m_calibSequence": "JetArea_Residual_Origin_EtaJES_GSC",
      "m_redoJVT": true,
      "m_sort": true,
      "m_doCleaning": true,
      "m_jetCleanCutLevel": "LooseBad",
      "m_saveAllCleanDecisions": true,
      "m_jetCleanUgly": false,
      "m_inContainerName": "AntiKt4EMTopoJets",
      "m_outContainerName": "AntiKt4EMTopoJets_Nominal",
      "m_jetAlgo": "AntiKt4EMTopo",
      "m_outputAlgo": "AntiKt4EMTopoJets_Nominal_Algo",
      "m_JESUncertConfig": "",
      "m_JERUncertConfig": ""
    }
  },

  { "class": "JetCalibrator",
    "configs": {
      "m_name": "7LCCalibrator",
      "m_calibConfigFullSim": "JES_MC15Prerecommendation_Rscan_Aug2015.config",
      "m_calibSequence": "JetArea_Residual_Origin_EtaJES",
      "m_redoJVT": false,
      "m_sort": true,
      "m_doCleaning": true,
      "m_jetCleanCutLevel": "LooseBad",
      "m_saveAllCleanDecisions": true,
      "m_jetCleanUgly": false,
      "m_inContainerName": "AntiKt7LCTopoJets",
      "m_outContainerName": "AntiKt7LCTopoJets_Nominal",
      "m_jetAlgo": "AntiKt7LCTopo",
      "m_outputAlgo": "AntiKt7LCTopoJets_Nominal_Algo",
      "m_JESUncertConfig": "",
      "m_JERUncertConfig": ""
    }
  },


  { "class": "JetSelector",
     "configs": {
      "m_name": "4EMSelector",
      "m_inContainerName": "AntiKt4EMTopoJets_Nominal",
      "m_inputAlgo": "AntiKt4EMTopoJets_Nominal_Algo",
      "m_decorateSelectedObjects": true,
      "m_createSelectedContainer": true,
      "m_outContainerName": "AntiKt4EMTopoJets_Signal",
      "m_outputAlgo":  "AntiKt4EMTopoJets_Signal_Algo",
      "m_cleanJets": false,
      "m_pT_min": 10e3,
      "m_useCutFlow": true
    }
  },


  { "class": "JetSelector",
     "configs": {
      "m_name": "7LCSelector",
      "m_inContainerName": "AntiKt7LCTopoJets_Nominal",
      "m_inputAlgo": "AntiKt7LCTopoJets_Nominal_Algo",
      "m_decorateSelectedObjects": true,
      "m_createSelectedContainer": true,
      "m_outContainerName": "AntiKt7LCTopoJets_Signal",
      "m_outputAlgo":  "AntiKt7LCTopoJets_Signal_Algo",
      "m_cleanJets": false,
      "m_pT_min": 10e3,
      "m_useCutFlow": true
    }
  },

  { "class": "JetSelector",
     "configs": {
      "m_name": "TruthSelector",
      "m_inContainerName": "AntiKt4TruthJets",
      "m_decorateSelectedObjects": true,
      "m_createSelectedContainer": true,
      "m_outContainerName": "AntiKt4TruthJets_Signal",
      "m_outputAlgo":  "AntiKt4TruthJets_Signal_Algo",
      "m_cleanJets": false,
      "m_pT_min": 10e3,
      "m_useCutFlow": true
    }
  },

  { "class": "JetSelector",
     "configs": {
      "m_name": "2TruthSelector",
      "m_inContainerName": "AntiKt2TruthJets",
      "m_decorateSelectedObjects": true,
      "m_createSelectedContainer": true,
      "m_outContainerName": "AntiKt2TruthJets_Signal",
      "m_outputAlgo":  "AntiKt2TruthJets_Signal_Algo",
      "m_cleanJets": false,
      "m_pT_min": 10e3,
      "m_useCutFlow": true
    }
  },
   
  { "class": "TreeAlgo",
     "configs": {
      "m_name": "Tree",
      "m_jetContainerName": "AntiKt4EMTopoJets_Signal AntiKt7LCTopoJets_Signal",
      "m_jetBranchName": "RefJet 7LCJet",
      "m_jetDetailStr": "kinematic rapidity clean scales constscaleEta trackPV truth|kinematic rapidity clean scales constscaleEta",
      "m_truthJetContainerName": "AntiKt4TruthJets_Signal AntiKt2TruthJets_Signal",
      "m_truthJetBranchName": "TruthRefJet Truth7LCJet",
      "m_truthJetDetailStr": "kinematic",
      "m_trigDetailStr": "",
      "m_evtDetailStr": "pileup rhoEM"
    }
  }

]
