426131 20593000 0.085823
426132 107300 0.14178
426133 13075 0.018541
426134 96.079 0.02779
426135 2.725 0.018421
426136 0.20862 0.0087435
426137 0.043732 0.0031001
426138 0.00033372 0.014573
426139 0.000058948 0.0030994
426140 0.0000055731 0.00095787
426141 0.00000012593 0.00072054
426142 0.000000001103 0.0004725
