[
  { "class": "BasicEventSelection",
    "configs": {
      "m_name": "BasicEventSel",
      "m_truthLevelOnly": false,
      "m_applyGRLCut": false,
      "m_GRLxml": "xAODAnaHelpers/data15_13TeV.periodAllYear_DetStatus-v75-repro20-01_DQDefects-00-02-02_PHYS_StandardGRL_All_Good_25ns_tolerable_IBLSTANDBY-DISABLE.xml",
      "m_triggerSelection": "",
      "m_applyTriggerCut": false,
      "m_storeTrigDecisions": false,  
      "m_applyEventCleaningCut": true,
      "m_applyCoreFlagsCut": true,
      "m_doPUreweighting": true,
      "m_lumiCalcFileNames": "xAODAnaHelpers/ilumicalc_histograms_HLT_j420_325713-340453_OflLumi-13TeV-010.root,xAODAnaHelpers/ilumicalc_histograms_HLT_j360_325713-340453_OflLumi-13TeV-010.root,xAODAnaHelpers/ilumicalc_histograms_HLT_j260_325713-340453_OflLumi-13TeV-010.root,xAODAnaHelpers/ilumicalc_histograms_HLT_j175_325713-340453_OflLumi-13TeV-010.root,AODAnaHelpers/ilumicalc_histograms_HLT_j110_325713-340453_OflLumi-13TeV-010.root,xAODAnaHelpers/ilumicalc_histograms_HLT_j85_325713-340453_OflLumi-13TeV-010.root,xAODAnaHelpers/ilumicalc_histograms_HLT_j60_325713-340453_OflLumi-13TeV-010.root,xAODAnaHelpers/ilumicalc_histograms_HLT_j45_325713-340453_OflLumi-13TeV-010.root,xAODAnaHelpers/ilumicalc_histograms_HLT_j35_325713-340453_OflLumi-13TeV-010.root,xAODAnaHelpers/ilumicalc_histograms_HLT_j25_325713-340453_OflLumi-13TeV-010.root,xAODAnaHelpers/ilumicalc_histograms_HLT_j15_325713-340453_OflLumi-13TeV-010.root",
      "m_PRWFileNames": "xAODAnaHelpers/MC16cPythia.root",
      "m_applyPrimaryVertexCut": true,
      "m_vertexContainerName": "PrimaryVertices",
      "m_PVNTrack": 2,
      "m_checkDuplicatesMC": true,
      "m_derivationName": "JETM9Kernel"
    }
  },

  { "class": "JetCalibrator",
    "configs": {
      "m_name": "Calibrator4EM",
      "m_calibConfigFullSim": "JES_data2017_2016_2015_Recommendation_Feb2018_rel21.config",
      "m_calibSequence": "JetArea_Residual_EtaJES_GSC",
      "m_redoJVT": true,
      "m_sort": true,
      "m_doCleaning": true,
      "m_jetCleanCutLevel": "LooseBad",
      "m_saveAllCleanDecisions": true,
      "m_jetCleanUgly": false,
      "m_inContainerName": "AntiKt4EMTopoJets",
      "m_outContainerName": "AntiKt4EMTopoJets_Nominal",
      "m_jetAlgo": "AntiKt4EMTopo",
      "m_outputAlgo": "AntiKt4EMTopoJets_Nominal_Algo",
      "m_JESUncertConfig": "",
      "m_JERUncertConfig": ""
    }
  },

  { "class": "JetCalibrator",
    "configs": {
      "m_name": "Calibrator2LC",
      "m_calibConfigFullSim": "JES_MC16Recommendation_Rscan2LC_22Feb2018_rel21.config",
      "m_calibSequence": "JetArea_Residual_EtaJES_GSC",
      "m_redoJVT": false,
      "m_sort": true,
      "m_doCleaning": true,
      "m_jetCleanCutLevel": "LooseBad",
      "m_saveAllCleanDecisions": true,
      "m_jetCleanUgly": false,
      "m_inContainerName": "AntiKt2LCTopoJets",
      "m_outContainerName": "AntiKt2LCTopoJets_Nominal",
      "m_jetAlgo": "AntiKt2LCTopo",
      "m_outputAlgo": "AntiKt2LCTopoJets_Nominal_Algo",
      "m_JESUncertConfig": "",
      "m_JERUncertConfig": ""
    }
  },

  { "class": "JetCalibrator",
    "configs": {
      "m_name": "Calibrator6LC",
      "m_calibConfigFullSim": "JES_MC16Recommendation_Rscan6LC_22Feb2018_rel21.config",
      "m_calibSequence": "JetArea_Residual_EtaJES_GSC",
      "m_redoJVT": false,
      "m_sort": true,
      "m_doCleaning": true,
      "m_jetCleanCutLevel": "LooseBad",
      "m_saveAllCleanDecisions": true,
      "m_jetCleanUgly": false,
      "m_inContainerName": "AntiKt6LCTopoJets",
      "m_outContainerName": "AntiKt6LCTopoJets_Nominal",
      "m_jetAlgo": "AntiKt6LCTopo",
      "m_outputAlgo": "AntiKt6LCTopoJets_Nominal_Algo",
      "m_JESUncertConfig": "",
      "m_JERUncertConfig": ""
    }
  },

  { "class": "JetSelector",
     "configs": {
      "m_name": "Selector4EM",
      "m_inContainerName": "AntiKt4EMTopoJets_Nominal",
      "m_inputAlgo": "AntiKt4EMTopoJets_Nominal_Algo",
      "m_decorateSelectedObjects": true,
      "m_createSelectedContainer": true,
      "m_outContainerName": "AntiKt4EMTopoJets_Signal",
      "m_outputAlgo":  "AntiKt4EMTopoJets_Signal_Algo",
      "m_cleanJets": false,
      "m_pT_min": 10e3,
      "m_useCutFlow": true
    }
  },

  { "class": "JetSelector",
     "configs": {
      "m_name": "Selector2LC",
      "m_inContainerName": "AntiKt2LCTopoJets_Nominal",
      "m_inputAlgo": "AntiKt2LCTopoJets_Nominal_Algo",
      "m_decorateSelectedObjects": true,
      "m_createSelectedContainer": true,
      "m_outContainerName": "AntiKt2LCTopoJets_Signal",
      "m_outputAlgo":  "AntiKt2LCTopoJets_Signal_Algo",
      "m_cleanJets": false,
      "m_pT_min": 10e3,
      "m_useCutFlow": true
    }
  },

  { "class": "JetSelector",
     "configs": {
      "m_name": "Selector6LC",
      "m_inContainerName": "AntiKt6LCTopoJets_Nominal",
      "m_inputAlgo": "AntiKt6LCTopoJets_Nominal_Algo",
      "m_decorateSelectedObjects": true,
      "m_createSelectedContainer": true,
      "m_outContainerName": "AntiKt6LCTopoJets_Signal",
      "m_outputAlgo":  "AntiKt6LCTopoJets_Signal_Algo",
      "m_cleanJets": false,
      "m_pT_min": 10e3,
      "m_useCutFlow": true
    }
  },

  { "class": "JetSelector",
     "configs": {
      "m_name": "TruthSelector",
      "m_inContainerName": "AntiKt4TruthJets",
      "m_decorateSelectedObjects": true,
      "m_createSelectedContainer": true,
      "m_outContainerName": "AntiKt4TruthJets_Signal",
      "m_outputAlgo":  "AntiKt4TruthJets_Signal_Algo",
      "m_cleanJets": false,
      "m_pT_min": 10e3,
      "m_useCutFlow": true
    }
  },

  { "class": "JetSelector",
     "configs": {
      "m_name": "TruthSelector2",
      "m_inContainerName": "AntiKt2TruthJets",
      "m_decorateSelectedObjects": true,
      "m_createSelectedContainer": true,
      "m_outContainerName": "AntiKt2TruthJets_Signal",
      "m_outputAlgo":  "AntiKt2TruthJets_Signal_Algo",
      "m_cleanJets": false,
      "m_pT_min": 10e3,
      "m_useCutFlow": true
    }
  },
  
  { "class": "JetSelector",
     "configs": {
      "m_name": "TruthSelector6",
      "m_inContainerName": "AntiKt6TruthJets",
      "m_decorateSelectedObjects": true,
      "m_createSelectedContainer": true,
      "m_outContainerName": "AntiKt6TruthJets_Signal",
      "m_outputAlgo":  "AntiKt6TruthJets_Signal_Algo",
      "m_cleanJets": false,
      "m_pT_min": 10e3,
      "m_useCutFlow": true
    }
  },

  { "class": "TreeAlgo",
     "configs": {
      "m_name": "Tree",
      "m_jetContainerName": "AntiKt4EMTopoJets_Signal AntiKt2LCTopoJets_Signal AntiKt6LCTopoJets_Signal",
      "m_jetBranchName": "RefJet 2LCJet 6LCJet",
      "m_jetDetailStr": "kinematic rapidity cleanLight scales detectorEta JVT|kinematic rapidity cleanLight scales detectorEta|kinematic rapidity cleanLight scales detectorEta",
      "m_truthJetContainerName": "AntiKt4TruthJets_Signal AntiKt2TruthJets_Signal AntiKt6TruthJets_Signal", 
      "m_truthJetBranchName": "TruthRefJet Truth2LCJet Truth6LCJet",
      "m_truthJetDetailStr": "kinematic",
      "m_trigDetailStr": "",
      "m_evtDetailStr": "pileup rhoEM"
    }
  }

]
